\select@language {english}
\contentsline {part}{I\hspace {1em}Copyright / Copyleft}{2}
\contentsline {part}{II\hspace {1em}main function}{3}
\contentsline {part}{III\hspace {1em}available option}{4}
\contentsline {part}{IV\hspace {1em}method of use}{5}
\contentsline {part}{V\hspace {1em}About}{5}
\contentsline {section}{\numberline {1}Libraries}{5}
\contentsline {section}{\numberline {2}Version}{5}
\contentsline {section}{\numberline {3}License and Copyright}{6}
