\relax 
\select@language{english}
\@writefile{toc}{\select@language{english}}
\@writefile{lof}{\select@language{english}}
\@writefile{lot}{\select@language{english}}
\@writefile{toc}{\contentsline {section}{\numberline {1}Copyright / Copyleft}{1}}
\@writefile{toc}{\contentsline {section}{\numberline {2}Main function}{1}}
\@writefile{toc}{\contentsline {section}{\numberline {3}available option}{2}}
\@writefile{toc}{\contentsline {section}{\numberline {4}method of use}{2}}
\@writefile{toc}{\contentsline {section}{\numberline {5}About}{2}}
\@writefile{toc}{\contentsline {subsection}{\numberline {5.1}Libraries}{2}}
\@writefile{toc}{\contentsline {section}{\numberline {6}Version}{3}}
\@writefile{toc}{\contentsline {section}{\numberline {7}License and Copyright}{3}}
\@writefile{toc}{\contentsline {section}{\numberline {8}Auteur}{3}}
